<svg width="51" height="51" viewBox="0 0 51 51" fill="none" xmlns="http://www.w3.org/2000/svg">
    <circle cx="25.5" cy="25.5" r="25.5" fill="white"/>
    <path d="M36.1701 15.2727H17.5454C17.4893 15.2727 17.4382 15.2938 17.3856 15.3097L16.9278 13.8053C16.7822 13.327 16.341 13 15.8409 13H13.5682C13.2544 13 13 13.2544 13 13.5682V14.7045C13 15.0183 13.2544 15.2727 13.5682 15.2727H14.9992L18.5493 26.9388L17.2234 28.4856C16.6993 29.0969 16.4634 29.9393 16.7046 30.7075C17.013 31.69 17.8802 32.3182 18.8799 32.3182H35.1591C35.4729 32.3182 35.7273 32.0638 35.7273 31.75V30.6136C35.7273 30.2998 35.4729 30.0454 35.1591 30.0454H18.8799L20.681 27.9441C20.7263 27.8913 20.7596 27.8316 20.7939 27.7727H31.8044C32.6851 27.7727 33.4865 27.2641 33.8615 26.4673L37.8263 18.042C37.9401 17.7995 38 17.5304 38 17.2635V17.1026C38 16.092 37.1807 15.2727 36.1701 15.2727Z"
          fill="#149267"/>
    <path d="M19.8186 38.0001C21.0739 38.0001 22.0914 36.9825 22.0914 35.7273C22.0914 34.4721 21.0739 33.4546 19.8186 33.4546C18.5634 33.4546 17.5459 34.4721 17.5459 35.7273C17.5459 36.9825 18.5634 38.0001 19.8186 38.0001Z"
          fill="#149267"/>
    <path d="M33.4554 38.0001C34.7106 38.0001 35.7281 36.9825 35.7281 35.7273C35.7281 34.4721 34.7106 33.4546 33.4554 33.4546C32.2002 33.4546 31.1826 34.4721 31.1826 35.7273C31.1826 36.9825 32.2002 38.0001 33.4554 38.0001Z"
          fill="#149267"/>
</svg>
