<svg width="51" height="51" viewBox="0 0 51 51" fill="none" xmlns="http://www.w3.org/2000/svg">
    <circle cx="25.5" cy="25.5" r="25.5" fill="white"/>
    <path d="M25.4235 22.0681C25.9386 22.0681 26.3562 21.6505 26.3562 21.1354C26.3562 20.6202 25.9386 20.2026 25.4235 20.2026C24.9083 20.2026 24.4907 20.6202 24.4907 21.1354C24.4907 21.6505 24.9083 22.0681 25.4235 22.0681Z"
          fill="#0E7894"/>
    <path d="M32.6238 33.3641C32.1748 33.1231 32.2439 32.6886 32.2439 32.4163V28.6106C33.5572 28.3424 36.4477 28.3177 36.4477 25.7217C36.4477 24.4389 35.4011 23.9691 34.1248 24.0989C33.107 24.2023 32.6283 24.8816 30.9041 24.2331C30.6856 24.1509 30.0758 23.613 30.4249 23.1875C31.3174 22.0994 31.8209 20.6809 31.8209 19.1534C31.8209 18.9037 31.8188 18.4034 32.0427 18.3099C33.191 17.8306 33.9675 16.6413 33.9675 15.2967C33.9675 13.476 32.5178 12 30.7297 12C29.7603 12 28.8905 12.4341 28.2971 13.1215C28.2451 13.1817 28.1523 13.3068 27.9248 13.2086C27.1194 12.8297 26.4454 12.7173 25.4998 12.7173C24.4842 12.7173 23.7462 12.8543 22.8958 13.2877C22.6274 13.3698 22.445 13.0933 22.3124 12.9591C21.7272 12.3665 20.9211 12 20.0306 12C18.2424 12 16.7926 13.476 16.7926 15.2967C16.7926 16.6944 17.6471 17.8888 18.8532 18.3684C18.9697 18.4147 19.1499 18.5546 19.1787 19.1534C19.2515 20.6678 19.694 22.0631 20.5556 23.1629C20.8751 23.5707 20.5672 24.0971 20.0863 24.2457C18.3322 24.788 17.8892 24.2035 16.8751 24.0988C15.599 23.9671 14.5522 24.4388 14.5522 25.7216C14.5522 28.2478 17.4418 28.3378 18.7558 28.6022V32.4162C18.7558 32.696 18.795 33.088 18.2114 33.4485C16.5817 34.1202 14.2427 34.172 14.2427 36.4527C14.2427 37.8404 15.3937 39.233 16.7554 38.9654C18.4613 38.6303 19.3568 38.0639 21.9453 36.8925C22.5027 36.6385 22.8961 36.7659 23.1408 36.8002C23.8751 36.9033 24.67 36.9432 25.4997 36.9432C26.4268 36.9432 27.3102 36.8935 28.1141 36.7613C28.317 36.728 28.7914 36.7089 29.227 36.8859C31.7531 38.0618 32.5637 38.6271 34.2444 38.9654C35.6049 39.2392 36.7572 37.8404 36.7572 36.4527C36.7573 34.1722 34.2505 34.0443 32.6238 33.3641ZM28.5592 22.0681C28.5592 23.4268 27.1555 24.5284 25.4235 24.5284C23.6919 24.5284 22.2879 23.4268 22.2879 22.0681C22.2879 20.7093 23.6918 19.6079 25.4235 19.6079C27.1554 19.6079 28.5592 20.7093 28.5592 22.0681ZM20.9113 18.0105C20.9113 17.3922 21.4123 16.8911 22.0306 16.8911C22.6488 16.8911 23.1501 17.3922 23.1501 18.0105C23.1501 18.6287 22.6488 19.1299 22.0306 19.1299C21.4123 19.1298 20.9113 18.6286 20.9113 18.0105ZM29.2879 31.8582C29.2879 33.9502 27.5919 34.8897 25.5 34.8897C23.4079 34.8897 21.712 33.9502 21.712 31.8582V30.077C21.712 27.9849 23.408 26.2891 25.5 26.2891C27.592 26.2891 29.2879 27.985 29.2879 30.077V31.8582ZM28.4203 19.1298C27.8021 19.1298 27.3009 18.6286 27.3009 18.0104C27.3009 17.3922 27.8021 16.891 28.4203 16.891C29.0385 16.891 29.5397 17.3922 29.5397 18.0104C29.5397 18.6286 29.0385 19.1298 28.4203 19.1298Z"
          fill="#0E7894"/>
</svg>
