<svg width="65" height="65" viewBox="0 0 65 65" fill="#8BC053" xmlns="http://www.w3.org/2000/svg">
    <path d="M62.0516 59.2761C61.7582 58.1482 61.7585 56.9582 62.0516 55.8317C65.4266 55.3696 65.4393 50.6114 62.0707 50.1284C63.605 48.7775 64.583 46.8173 64.604 44.6393C64.6318 41.7392 62.9083 39.0181 60.2742 37.801C61.6422 35.8556 60.0695 33.1417 57.7223 33.2829C57.4355 32.1677 57.4352 30.9911 57.7223 29.8744C61.5164 30.0731 61.7658 24.1326 57.9252 24.1326H50.9843L48.2679 14.9865L61.2899 11.5661C63.535 10.9764 63.538 7.68068 61.2899 7.09008L36.0246 0.454154C33.7188 -0.151547 31.2814 -0.151547 28.9757 0.454154L19.581 2.9219C18.4285 3.22456 18.8598 5.07975 20.0648 4.76376L29.4595 2.29602C31.4488 1.7736 33.5516 1.7736 35.5409 2.29602L60.8061 8.9322C61.2127 9.03897 61.2126 9.61776 60.8061 9.72452L41.3619 14.8318L35.2419 9.28259V7.07828C35.0863 3.31787 29.7279 3.31876 29.5726 7.07828V9.78483C29.5726 10.1157 29.7444 10.4229 30.0264 10.5961C31.3157 11.3876 32.8277 11.4996 34.1959 10.9047L39.1636 15.4091L35.5408 16.3606C33.5515 16.883 31.4486 16.883 29.4594 16.3606L4.19422 9.72452C3.78758 9.61763 3.78746 9.03897 4.19422 8.9322L15.2464 6.02925C16.3989 5.72659 15.9675 3.87102 14.7626 4.18739L3.7104 7.09034C1.46533 7.68004 1.46215 10.9758 3.7104 11.5664L16.7323 14.9867L14.0158 24.1328H11.7212C7.61616 24.1328 4.24411 27.4402 4.20463 31.5057C4.18406 33.6339 5.09979 35.6978 6.68101 37.1204H3.26644C-0.35254 37.2444 -0.613559 42.3324 2.94879 42.844C3.24257 43.972 3.24257 45.1604 2.94879 46.2884C-0.426301 46.7503 -0.439123 51.5088 2.9295 51.9917C1.39512 53.3427 0.417187 55.3027 0.395986 57.4807C0.376689 59.4816 1.14261 61.3675 2.55257 62.7914C3.96291 64.2156 5.84108 64.9999 7.841 64.9999H61.7336C65.341 64.8812 65.6241 59.7929 62.0516 59.2761ZM33.3375 9.19969C32.7291 9.43723 32.0837 9.43761 31.4768 9.20033V7.07828C31.5206 5.84682 33.294 5.84758 33.3375 7.07828V9.19969ZM57.159 42.8622C59.4165 42.9543 59.4219 46.1761 57.159 46.2706H17.2876V42.8622H57.159ZM15.3831 54.3219L12.7586 55.6988V42.8622H15.3831V54.3219ZM10.8543 46.2706H4.9058C5.12912 45.1463 5.12912 43.9865 4.9058 42.8622H10.8543V46.2706ZM11.3137 58.0884C11.6229 58.2615 11.9345 58.2709 12.2487 58.1168L16.5699 55.8498H60.0946C59.8719 56.9732 59.872 58.1338 60.0949 59.2582H7.841C6.90153 59.2582 6.13714 58.4937 6.13714 57.554C6.13714 56.6143 6.90153 55.8498 7.841 55.8498H10.8541V57.2737C10.8543 57.6069 11.0286 57.916 11.3137 58.0884ZM55.7699 33.283H11.6496C10.7102 33.283 9.94578 32.5185 9.94578 31.5788C9.94578 30.6391 10.7102 29.8745 11.6496 29.8745H37.4418C37.4178 30.5527 37.4213 31.5472 38.3785 31.5472H43.8583C44.8184 31.5472 44.819 30.5531 44.795 29.8745H55.7701C55.5473 30.9991 55.5472 32.1596 55.7699 33.283ZM41.1185 23.2777C41.9576 23.2777 42.7562 26.2552 42.8875 29.643H39.3495C39.4807 26.2552 40.2795 23.2777 41.1185 23.2777ZM58.8914 27.0037C58.8914 27.5367 58.4579 27.9702 57.9251 27.9702H44.6701C44.6075 27.3229 44.5242 26.6772 44.4087 26.0371H57.9251C58.4579 26.0372 58.8914 26.4709 58.8914 27.0037ZM48.9977 24.1329H43.933C43.4799 22.7994 42.8572 21.9466 42.0707 21.5805V16.6145L46.4251 15.4708L48.9977 24.1329ZM18.575 15.4708L28.9756 18.2026C31.2725 18.8059 33.7276 18.8059 36.0245 18.2026L40.1662 17.1147V21.5805C39.3796 21.9466 38.757 22.7994 38.3039 24.1329H16.0024L18.575 15.4708ZM7.7143 35.4763C6.66464 34.4164 6.09448 33.0127 6.10883 31.5242C6.13828 28.4986 8.65592 26.0372 11.7212 26.0372H37.8282C37.7127 26.6773 37.6294 27.323 37.5668 27.9703H11.6496C9.66001 27.9703 8.04146 29.5891 8.04146 31.5789C8.04146 33.5687 9.66014 35.1875 11.6496 35.1875H57.9249C59.1339 35.1875 59.1893 37.1206 57.9249 37.1206H11.6496C10.162 37.1205 8.76434 36.5366 7.7143 35.4763ZM2.30005 39.9913C2.30005 39.4584 2.73361 39.0248 3.26644 39.0248H57.1591C60.1971 39.0248 62.7289 41.5817 62.6998 44.621C62.6704 47.6466 60.1527 50.108 57.0874 50.108H52.0934C50.9019 50.108 50.8476 52.0123 52.0934 52.0123H61.7337C62.2665 52.0123 62.7001 52.4458 62.7001 52.9788C62.7001 53.5118 62.2665 53.9453 61.7337 53.9453H17.2875V52.0122H47.0751C48.2666 52.0122 48.3209 50.1078 47.0751 50.1078H17.2875V48.1747H57.159C59.1487 48.1747 60.7673 46.5559 60.7673 44.5661C60.7673 42.5764 59.1487 40.9576 57.159 40.9576H3.26644C2.73348 40.9578 2.30005 40.5242 2.30005 39.9913ZM3.26644 50.108C1.98711 50.0624 1.98813 48.22 3.26644 48.1748H10.8543V50.108H3.26644ZM61.7337 63.0956H7.841C6.35322 63.0956 4.95557 62.5117 3.90565 61.4514C2.85599 60.3913 2.28584 58.9878 2.30018 57.4993C2.32964 54.4737 4.84728 52.0123 7.9126 52.0123H10.8543V53.9454H7.841C3.05302 54.1442 3.05671 60.9655 7.841 61.1626H61.7336C63.013 61.208 63.0121 63.0505 61.7337 63.0956Z"/>
</svg>
